…
## Результат

```         

Детальная информация о небезопасных точках доступа:
# A tibble: 87 × 6
   mac_address       encryption power num_packets channel essid     
   <chr>             <chr>      <dbl>       <dbl>   <dbl> <chr>     
 1 E8:28:C1:DC:B2:41 NA            48         360      NA BSSID: OPN
 2 E8:28:C1:DC:B2:40 NA            48         360      NA BSSID: OPN
 3 E8:28:C1:DC:B2:42 NA            48         360      NA BSSID: OPN
 4 E8:28:C1:DD:04:40 NA            52         360      NA BSSID: OPN
 5 E8:28:C1:DD:04:41 NA            52         360      NA BSSID: OPN
 6 E8:28:C1:DD:04:42 NA            52         360      NA BSSID: OPN
 7 E8:28:C1:DC:B2:52 NA             6         130      NA BSSID: OPN
 8 E8:28:C1:DC:B2:50 NA             6         130      NA BSSID: OPN
 9 E8:28:C1:DC:B2:51 NA             6         130      NA BSSID: OPN
10 E8:28:C1:DD:04:52 NA            11         130      NA BSSID: OPN
# ℹ 77 more rows
# ℹ Use `print(n = ...)` to see more rows
…
Самые активные небезопасные точки доступа (по количеству пакетов):
# A tibble: 5 × 5
  mac_address       num_packets power channel essid     
  <chr>                   <dbl> <dbl>   <dbl> <chr>     
1 E8:28:C1:DC:B2:41         360    48      NA BSSID: OPN
2 E8:28:C1:DC:B2:40         360    48      NA BSSID: OPN
3 E8:28:C1:DC:B2:42         360    48      NA BSSID: OPN
4 E8:28:C1:DD:04:40         360    52      NA BSSID: OPN
5 E8:28:C1:DD:04:41         360    52      NA BSSID: OPN

=== УСТРОЙСТВА, ПОДКЛЮЧЕННЫЕ К НЕБЕЗОПАСНЫМ ТОЧКАМ ДОСТУПА ===
Количество устройств, подключенных к небезопасным точкам доступа: 123 

Детали подключенных устройств:
# A tibble: 40 × 4
   bssid             device_count total_packets avg_power
   <chr>                    <int>         <dbl>     <dbl>
 1 00:25:00:FF:94:73           45           510     -71.2
 2 E8:28:C1:DC:B2:52           12          3827     -59.8
 3 E8:28:C1:DC:C6:B2            8           501     -58  
 4 E8:28:C1:DC:B2:50            5          1764     -59.8
 5 08:3A:2F:56:35:FE            4           160     -75  
 6 E8:28:C1:DD:04:52            4           935     -40.5
 7 E8:28:C1:DE:74:32            4           368     -39.5
 8 E8:28:C1:DC:F0:90            3           144     -63.7
 9 E8:28:C1:DC:FF:F2            3            71     -73  
10 CE:B3:FF:84:45:FC            2             6     -85  
# ℹ 30 more rows
# ℹ Use `print(n = ...)` to see more rows
…
Нерандомизированные устройства на небезопасных точках доступа:
# A tibble: 53 × 4
   station_mac       bssid             power num_packets
   <chr>             <chr>             <dbl>       <dbl>
 1 04:8C:9A:0B:40:EA E8:28:C1:DD:04:52   -73         756
 2 AC:B5:7D:B4:92:05 2A:E8:A2:02:01:73   -73         281
 3 16:9C:FD:6C:63:E1 E8:28:C1:DE:74:32   -67         223
 4 5E:54:01:D6:05:1C E8:28:C1:DE:74:32   -45         135
 5 48:2C:A0:74:B7:12 E8:28:C1:DC:B2:40   -82         134
 6 56:14:6C:F1:A5:9E E8:28:C1:DC:F0:90   -57         116
 7 4C:E0:DB:0B:F8:C2 E8:28:C1:DC:C6:B2   -61         114
 8 4C:44:5B:14:76:E3 E8:28:C1:DD:04:52    -1          71
 9 02:01:5B:41:E9:B3 E8:28:C1:DC:FF:F2   -75          66
10 48:74:12:82:D7:91 E8:28:C1:DC:B2:52   -69          55
# ℹ 43 more rows
# ℹ Use `print(n = ...)` to see more rows
…
