…
``` r
dns %>%
  arrange(id_orig_h, query, as.numeric(ts)) %>%
  group_by(id_orig_h, query) %>%
  mutate(int = diff(c(NA, as.numeric(ts)))) %>%
  summarise(sd_int = sd(int, na.rm = TRUE),
            mean_int = mean(int, na.rm = TRUE),
            n = n(),
            .groups="drop") %>%
  filter(n > 5, sd_int < mean_int * 0.1, mean_int > 0) %>%
  arrange(sd_int)
```

    # A tibble: 112 × 5
       id_orig_h       query                      sd_int mean_int     n
       <chr>           <chr>                       <dbl>    <dbl> <int>
     1 192.168.202.122 SA.WINDOWS.COM        0              0.75      6
     2 192.168.100.130 MYGROUP               0.000000107    0.270     6
     3 192.168.202.146 XP_BASE               0.000000658    0.750     8
     4 192.168.202.65  MINIME                0.000000798    0.750     6
     5 192.168.203.45  technet.microsoft.com 0.00414        5.00     16
     6 192.168.203.64  maps.google.com       0.00445        5.00     32
     7 192.168.202.94  www.iana.org          0.00445        5.00     32
     8 192.168.202.115 EIVXGJQRTS            0.00447        0.748     6
     9 192.168.202.115 UWPKDLUJMR            0.00447        0.748     6
    10 192.168.202.115 VOAGETTQEU            0.00447        0.748     6
    # ℹ 102 more rows
…
