…
    # A tibble: 1 × 14
      name      height  mass hair_color skin_color eye_color birth_year sex   gender
      <chr>      <int> <dbl> <chr>      <chr>      <chr>          <dbl> <chr> <chr> 
    1 Yarael P…    264    NA none       white      yellow            NA male  mascu…
    # ℹ 5 more variables: homeworld <chr>, species <chr>, films <list>,
    #   vehicles <list>, starships <list>

## Перечень персонажей меньше 170

``` r
starwars %>%   filter(height < 170)
```

    # A tibble: 22 × 14
       name     height  mass hair_color skin_color eye_color birth_year sex   gender
       <chr>     <int> <dbl> <chr>      <chr>      <chr>          <dbl> <chr> <chr> 
     1 C-3PO       167    75 <NA>       gold       yellow           112 none  mascu…
     2 R2-D2        96    32 <NA>       white, bl… red               33 none  mascu…
     3 Leia Or…    150    49 brown      light      brown             19 fema… femin…
     4 Beru Wh…    165    75 brown      light      blue              47 fema… femin…
     5 R5-D4        97    32 <NA>       white, red red               NA none  mascu…
     6 Yoda         66    17 white      green      brown            896 male  mascu…
     7 Mon Mot…    150    NA auburn     fair       blue              48 fema… femin…
     8 Wicket …     88    20 brown      brown      brown              8 male  mascu…
     9 Nien Nu…    160    68 none       grey       black             NA male  mascu…
    10 Watto       137    NA black      blue, grey yellow            NA male  mascu…
    # ℹ 12 more rows
    # ℹ 5 more variables: homeworld <chr>, species <chr>, films <list>,
    #   vehicles <list>, starships <list>

## Подсчитать ИМТ

``` r
starwars %>% mutate(BMI = mass / ( (height/100)^2 ))
```

    # A tibble: 87 × 15
       name     height  mass hair_color skin_color eye_color birth_year sex   gender
       <chr>     <int> <dbl> <chr>      <chr>      <chr>          <dbl> <chr> <chr> 
     1 Luke Sk…    172    77 blond      fair       blue            19   male  mascu…
     2 C-3PO       167    75 <NA>       gold       yellow         112   none  mascu…
     3 R2-D2        96    32 <NA>       white, bl… red             33   none  mascu…
     4 Darth V…    202   136 none       white      yellow          41.9 male  mascu…
     5 Leia Or…    150    49 brown      light      brown           19   fema… femin…
     6 Owen La…    178   120 brown, gr… light      blue            52   male  mascu…
     7 Beru Wh…    165    75 brown      light      blue            47   fema… femin…
     8 R5-D4        97    32 <NA>       white, red red             NA   none  mascu…
     9 Biggs D…    183    84 black      light      brown           24   male  mascu…
    10 Obi-Wan…    182    77 auburn, w… fair       blue-gray       57   male  mascu…
    # ℹ 77 more rows
    # ℹ 6 more variables: homeworld <chr>, species <chr>, films <list>,
    #   vehicles <list>, starships <list>, BMI <dbl>

## Найти 10 самых “вытянутых” персонажей. “Вытянутость” оценить по отношению массы (mass) к росту (height) персонажей.

``` r
 starwars %>% mutate(stretch = mass / height) 
```

    # A tibble: 87 × 15
       name     height  mass hair_color skin_color eye_color birth_year sex   gender
       <chr>     <int> <dbl> <chr>      <chr>      <chr>          <dbl> <chr> <chr> 
     1 Luke Sk…    172    77 blond      fair       blue            19   male  mascu…
     2 C-3PO       167    75 <NA>       gold       yellow         112   none  mascu…
     3 R2-D2        96    32 <NA>       white, bl… red             33   none  mascu…
     4 Darth V…    202   136 none       white      yellow          41.9 male  mascu…
     5 Leia Or…    150    49 brown      light      brown           19   fema… femin…
     6 Owen La…    178   120 brown, gr… light      blue            52   male  mascu…
     7 Beru Wh…    165    75 brown      light      blue            47   fema… femin…
     8 R5-D4        97    32 <NA>       white, red red             NA   none  mascu…
     9 Biggs D…    183    84 black      light      brown           24   male  mascu…
    10 Obi-Wan…    182    77 auburn, w… fair       blue-gray       57   male  mascu…
    # ℹ 77 more rows
    # ℹ 6 more variables: homeworld <chr>, species <chr>, films <list>,
    #   vehicles <list>, starships <list>, stretch <dbl>

## Нахождение средего возраста персонажей каждой расы вселенной Звездных войн

``` r
starwars %>% mutate(age = 2025 - birth_year) %>%
     group_by(species) %>%
     summarise(
         avg_age = mean(age, na.rm = TRUE)
     ) %>%
     arrange(desc(avg_age))
```

    # A tibble: 38 × 2
       species      avg_age
       <chr>          <dbl>
     1 Ewok           2017 
     2 Kel Dor        2003 
     3 Mon Calamari   1984 
     4 Rodian         1981 
     5 Twi'lek        1977 
     6 Mirialan       1976 
     7 Gungan         1973 
     8 Trandoshan     1972 
     9 Droid          1972.
    10 Human          1971.
    # ℹ 28 more rows
…
## Подсчет средней длины имени в каждой расе вселенной Звездных войн.

``` r
starwars %>%
     filter(!is.na(species) & !is.na(name)) %>%   
     group_by(species) %>%                        
     summarise(
         avg_name_length = mean(nchar(name))       
     ) %>%
     arrange(desc(avg_name_length))  
```

    # A tibble: 37 × 2
       species   avg_name_length
       <chr>               <dbl>
     1 Ewok                 21  
     2 Hutt                 21  
     3 Geonosian            17  
     4 Besalisk             15  
     5 Mirialan             14  
     6 Toong                14  
     7 Aleena               12  
     8 Cerean               12  
     9 Gungan               11.7
    10 Human                11.3
    # ℹ 27 more rows
…
