…
    === ПРОСМОТР ЧЕРЕЗ TIBBLE ===
    > if (require(tibble)) {
    +     data_tibble <- as_tibble(data_clean)
    +     print(data_tibble)
    +     
    +     # Используем glimpse если он работает
    +     tryCatch({
    +         cat("\nИспользуем glimpse():\n")
    +         glimpse(data_tibble)
    +     }, error = function(e) {
    +         cat("glimpse() не работает, используем альтернативы\n")
    +     })
    + }
    # A tibble: 101,904 × 313
       `@timestamp`             message `@metadata.beat` `@metadata.type` `@metadata.version` `@metadata.topic`
       <chr>                    <chr>   <chr>            <chr>            <chr>               <chr>            
     1 2019-10-20T20:11:06.937Z "A tok… winlogbeat       _doc             7.4.0               winlogbeat       
     2 2019-10-20T20:11:07.101Z "A pri… winlogbeat       _doc             7.4.0               winlogbeat       
     3 2019-10-20T20:11:09.052Z "Proce… winlogbeat       _doc             7.4.0               winlogbeat       
     4 2019-10-20T20:11:10.985Z "Proce… winlogbeat       _doc             7.4.0               winlogbeat       
     5 2019-10-20T20:11:11.249Z "Proce… winlogbeat       _doc             7.4.0               winlogbeat       
     6 2019-10-20T20:11:15.017Z "Proce… winlogbeat       _doc             7.4.0               winlogbeat       
     7 2019-10-20T20:11:15.438Z "File … winlogbeat       _doc             7.4.0               winlogbeat       
     8 2019-10-20T20:11:15.522Z "Proce… winlogbeat       _doc             7.4.0               winlogbeat       
     9 2019-10-20T20:11:15.522Z "Proce… winlogbeat       _doc             7.4.0               winlogbeat       
    10 2019-10-20T20:11:16.460Z "Proce… winlogbeat       _doc             7.4.0               winlogbeat       
    # ℹ 101,894 more rows
    # ℹ 307 more variables: event.created <chr>, event.kind <chr>, event.code <int>, event.action <chr>,
    #   log.level <chr>, winlog.event_id <int>, winlog.provider_name <chr>, winlog.api <chr>,
    #   winlog.record_id <int>, winlog.computer_name <chr>, winlog.keywords <list>,
    #   winlog.provider_guid <chr>, winlog.channel <chr>, winlog.task <chr>, winlog.opcode <chr>,
    #   winlog.version <int>, winlog.activity_id <chr>, winlog.event_data.SubjectDomainName <chr>,
    #   winlog.event_data.TargetDomainName <chr>, winlog.event_data.SubjectUserSid <chr>, …
    # ℹ Use `print(n = ...)` to see more rows, and `colnames()` to see all variable names
…
